tx_voit_menag_commerc_essen;tx_voit_menag_commerc_diesel;annee
0.35;0.64;2012
0.33;0.66;2013
0.32;0.68;2014
0.30;0.69;2015
0.30;0.69;2016
0.30;0.69;2017
0.33;0.66;2018
0.35;0.63;2019
0.38;0.60;2020
0.40;0.58;2021
0.42;0.55;2022
0.45;0.52;2023
0.47;0.48;2024
0.50;0.44;2025
0.52;0.40;2026
0.54;0.36;2027
0.57;0.32;2028
0.59;0.28;2029
0.61;0.24;2030
0.61;0.24;2031
0.61;0.24;2032
0.61;0.24;2033
0.61;0.24;2034
0.61;0.24;2035
0.61;0.24;2036
0.61;0.24;2037
0.61;0.24;2038
0.61;0.24;2039
0.61;0.24;2040
0.61;0.24;2041
0.61;0.24;2042
0.61;0.24;2043
0.61;0.24;2044
0.61;0.24;2045
0.61;0.24;2046
0.61;0.24;2047
0.61;0.24;2048
0.61;0.24;2049
0.61;0.24;2050
