index;annee;valeur_ifer
1;2015;7,27
2;2016;7,34
3;2017;7,37
4;2018;7,47
5;2019;7,57
6;2020;7,65
7;2021;3,16
8;2022;3,26
9;2023;3,36
10;2024;3,46
11;2025;3,56
12;2026;3,66
13;2027;3,76
14;2028;3,86
15;2029;3,96
16;2030;4,06
17;2031;4,16
18;2032;4,26
19;2033;4,36
20;2034;4,46
21;2035;4,56
22;2036;4,66
23;2037;4,76
24;2038;4,86
25;2039;4,96
26;2040;5,06
27;2041;5,16
28;2042;5,26
29;2043;5,36
30;2044;5,46
31;2045;5,56
32;2046;5,66
33;2047;5,75
34;2048;5,85
35;2049;5,95
36;2050;6,05
