nom_variable;n_action_associee;categorie_action;exemple_ca_roannais;unites
1_nb_logements;1;batiments;20;nb
1_surface_moy_logement;1;batiments;70;m² SHON
2_surface_bat_tertiaire;2;batiments;10000;m² SHON
2_part_niveau_renov_faible;2;batiments;0;
2_part_niveau_renov_perf;2;batiments;0;
3_puiss_crete;3;productions renouvelables;20;MWc
3b_puiss_install;3b;productions renouvelables;20;MW
4_nb_batiment_collectif_renouv;4;productions renouvelables;10;nb
4_surf_capteurs_bati;4;productions renouvelables;1000;m²
5_conso_totale_chauffage_resi;5;productions renouvelable;20;MWh
5_conso_totale_chauffage_tertiaire;5;productions renouvelable;20;MWh
5_part_conso_resi_racc;5;productions renouvelable;15;%
5_part_conso_tertiaire_racc;5;productions renouvelable;15;%
6_nb_methaniseur;6;productions renouvelables;1;nba
6_puiss_moy_methaniseurs;6;productions renouvelables;0,4;MWélec
6b_nb_methaniseur;6b;productions renouvelables;1;nb
6b_capacite_injec_biometh;6b;productions renouvelables;100;Nm3 CH4/h
7_longueur_bandes_cyclables;7;mobilité durable;50;km
7_longueur_pistes_cyclables;7;mobilité durable;20;km
7_indice_territoire;7;mobilité durable;0;
7_population;7;mobilité durable;0;
