commune;wrong;energie;usage;other_cat;annee;valeur
74199;6;5;10;2;2016;0.0
74032;3;3;5;2;2017;0.0039686101627644105
74281;4;10;9;2;2017;0.0
74091;5;5;10;2;2016;0.0
73310;5;5;6;2;2016;1.76797825961779e-05
74284;1;2;2;2;2016;0.762254449603845
74280;1;3;1;2;2017;10.278954886352
74008;6;6;12;2;2016;0.766319594893253
74126;5;5;9;2;2017;0.0
