<?xml version="1.0" encoding="UTF-8" standalone="no"?>
<!-- Created with Inkscape (http://www.inkscape.org/) -->

<svg
   width="10.583334mm"
   height="10.972086mm"
   viewBox="0 0 10.583334 10.972086"
   version="1.1"
   id="svg12211"
   xmlns="http://www.w3.org/2000/svg"
   xmlns:svg="http://www.w3.org/2000/svg">
  <defs
     id="defs12208" />
  <g
     id="layer1"
     transform="translate(-172.42306,-116.5689)">
    <g
       id="g12447"
       transform="matrix(0.07965487,0,0,0.07965487,197.02388,136.09802)">
      <g
         id="g12451">
        <path
           id="path12336-5"
           style="clip-rule:evenodd;fill: #007f7b;fill-rule:evenodd;stroke-width:3.52193"
           d="m -266.29945,-174.48072 18.02522,0.31796 c 0,6.46789 -3.18093,12.4056 -8.48246,16.0106 z m -1.80251,-3.07486 -0.21206,-20.99407 v -1.37839 l 1.37839,0.10625 v 0 0 c 0,0 3.39298,0.42413 4.98344,0.84826 1.59045,0.42411 3.07489,1.06028 4.5593,1.8025 7.31612,3.81712 12.4056,11.45129 12.82969,20.14581 l 0.10625,1.3784 h -1.37841 l -20.888,-0.63617 h -1.16635 z m 2.33269,-19.7217 0.21208,18.4493 18.34327,0.53017 c -0.7422,-7.21009 -5.19549,-13.46586 -11.34525,-16.75282 -1.27237,-0.63617 -2.65076,-1.16634 -4.02917,-1.59043 -1.16632,-0.21209 -2.12059,-0.42413 -3.1809,-0.63622 z m -4.13521,21.73625 10.28496,17.81313 c -3.18089,1.80254 -6.67993,2.7568 -10.28496,2.7568 -11.34525,0 -20.56991,-9.22466 -20.56991,-20.56993 0,-11.02715 8.69449,-20.14577 19.72167,-20.5699 z m -30.83001,-69.63073 h 116.64865 c 4.43243,0 8.10811,4.43796 8.10811,9.78967 v 118.1661 c 0,5.35162 -3.67568,9.78955 -8.10811,9.78955 h -116.64865 c -4.43244,0 -8.10811,-4.43793 -8.10811,-9.78955 v -118.1661 c 0,-5.35171 3.67567,-9.78967 8.10811,-9.78967 z m 67.45946,91.29519 h 30.81081 v 5.22111 h -30.81081 z m 0,-13.31379 h 42.27027 v 5.2211 h -42.27027 z m 24,-23.62548 h 6.05405 c 0.32433,0 0.54054,0.26107 0.54054,0.65264 v 14.35802 c 0,0.39159 -0.21621,0.65264 -0.54054,0.65264 h -6.05405 c -0.32432,0 -0.54055,-0.26105 -0.54055,-0.65264 v -14.35802 c 0,-0.26106 0.21623,-0.65264 0.54055,-0.65264 z m -23.35136,-8.74535 h 6.05406 c 0.32433,0 0.54054,0.26106 0.54054,0.65265 v 23.23389 c 0,0.39158 -0.21621,0.65264 -0.54054,0.65264 h -6.05406 c -0.32432,0 -0.54053,-0.26106 -0.54053,-0.65264 v -23.23389 c -0.10811,-0.39159 0.21621,-0.65265 0.54053,-0.65265 z m 11.67568,-4.96003 h 6.05405 c 0.32433,0 0.54055,0.26106 0.54055,0.65264 v 28.19393 c 0,0.39158 -0.21622,0.65264 -0.54055,0.65264 h -6.05405 c -0.32432,0 -0.54053,-0.26106 -0.54053,-0.65264 v -28.19393 c 0,-0.39158 0.21621,-0.65264 0.54053,-0.65264 z m 37.08108,-22.24611 h -117.18919 v 103.43021 h 117.18919 z" />
      </g>
    </g>
  </g>
</svg>
