<?xml version="1.0" encoding="utf-8"?>
<!-- Generator: Adobe Illustrator 25.0.0, SVG Export Plug-In . SVG Version: 6.00 Build 0)  -->
<svg version="1.1" id="Calque_1" xmlns="http://www.w3.org/2000/svg" xmlns:xlink="http://www.w3.org/1999/xlink" x="0px" y="0px"
	 viewBox="0 0 103.46 147.49" style="enable-background:new 0 0 103.46 147.49;" xml:space="preserve" width="31" height="44">
<style type="text/css">
	.st1{fill:none;stroke:#000000;stroke-width:5;stroke-linejoin:round;}
	.st2{fill:#FFFFFF;stroke:#000000;stroke-width:2;stroke-linejoin:round;stroke-miterlimit:10;}
	.st3{font-family:'MyriadPro-Bold';font-size:15px;font-weight: bold;}
</style>
<path d="M95.62,54.96c0,23.11-41.84,86.69-41.84,86.69S11.93,78.07,11.93,54.96s18.73-41.84,41.84-41.84S95.62,31.85,95.62,54.96z" class="st2"
	/>
<path class="st2" d="M53.77,77.84c-15.95,0-28.88-12.93-28.88-28.87c0-15.96,12.93-28.89,28.88-28.89
	c15.96,0,28.89,12.93,28.89,28.89C82.66,64.91,69.73,77.84,53.77,77.84z"/>
<g>
	<line class="st1" x1="61.85" y1="51.1" x2="61.85" y2="47.72"/>
	<line class="st1" x1="64.52" y1="51.1" x2="64.52" y2="47.72"/>
	<g>
		<path class="st1" d="M63.19,43.77v-1.42c0-2.55-1.98-4.61-4.42-4.61c-2.44,0-4.42,2.07-4.42,4.61V46c0,2.82-2.19,5.1-4.88,5.1l0,0
			c-2.7,0-4.88-2.28-4.88-5.1V33.78"/>
		<path class="st1" d="M60.52,46.56c0-1.54,1.28-2.79,2.67-2.79c1.38,0,2.67,1.25,2.67,2.79v1.14h-5.33V46.56z"/>
		<path class="st2" d="M44.59,32.56c-1.41-4.22-9.86-2.7-9.86-2.7s2.85,11.11,10.02,4.64C44.75,34.49,44.51,33.71,44.59,32.56z"/>
		<path class="st1" d="M55.83,23.8c-9.38,1.72-11.09,6.17-11.24,8.76c-0.07,1.15,0.16,1.93,0.16,1.93
			C57.62,41.03,55.83,23.8,55.83,23.8z"/>
		<polyline class="st2" points="51.19,29.59 44.64,33.96 39.43,32.74 		"/>
	</g>
</g>
<text transform="matrix(1 0 0 1 28.2833 62.6192)" class="st3">GnV</text>
</svg>
