<?xml version="1.0" encoding="UTF-8" standalone="no"?>
<svg
   xmlns:dc="http://purl.org/dc/elements/1.1/"
   xmlns:cc="http://creativecommons.org/ns#"
   xmlns:rdf="http://www.w3.org/1999/02/22-rdf-syntax-ns#"
   xmlns:svg="http://www.w3.org/2000/svg"
   xmlns="http://www.w3.org/2000/svg"
   xmlns:sodipodi="http://sodipodi.sourceforge.net/DTD/sodipodi-0.dtd"
   xmlns:inkscape="http://www.inkscape.org/namespaces/inkscape"
   version="1.1"
   id="Layer_1"
   x="0px"
   y="0px"
   viewBox="0 0 122.88 122.76"
   style="enable-background:new 0 0 122.88 122.76"
   xml:space="preserve"
   sodipodi:docname="fullscreen.svg"
   inkscape:version="0.92.5 (2060ec1f9f, 2020-04-08)"><metadata
     id="metadata81"><rdf:RDF><cc:Work
         rdf:about=""><dc:format>image/svg+xml</dc:format><dc:type
           rdf:resource="http://purl.org/dc/dcmitype/StillImage" /></cc:Work></rdf:RDF></metadata><defs
     id="defs79" /><sodipodi:namedview
     pagecolor="#ffffff"
     bordercolor="#666666"
     borderopacity="1"
     objecttolerance="10"
     gridtolerance="10"
     guidetolerance="10"
     inkscape:pageopacity="0"
     inkscape:pageshadow="2"
     inkscape:window-width="1860"
     inkscape:window-height="1043"
     id="namedview77"
     showgrid="false"
     inkscape:zoom="10.875021"
     inkscape:cx="81.534412"
     inkscape:cy="93.390281"
     inkscape:window-x="60"
     inkscape:window-y="0"
     inkscape:window-maximized="1"
     inkscape:current-layer="Layer_1" /><g
     id="g74"><path style="fill:#007f7b;fill-opacity:1;stroke-width:0"
       d="M114.89,89.82c0-2.21,1.79-4,4-4c2.21,0,4,1.79,4,4v28.75c0,2.21-1.79,4-4,4H89.67c-2.21,0-4-1.79-4-4c0-2.21,1.79-4,4-4 h19.18L74.49,82.09c-1.6-1.51-1.68-4.03-0.17-5.64c1.51-1.6,4.03-1.68,5.64-0.17l34.93,33.02V89.82L114.89,89.82z M89.82,7.99 c-2.21,0-4-1.79-4-4c0-2.21,1.79-4,4-4h28.75c2.21,0,4,1.79,4,4v29.21c0,2.21-1.79,4-4,4c-2.21,0-4-1.79-4-4V14.03L82.09,48.39 c-1.51,1.6-4.03,1.68-5.64,0.17c-1.6-1.51-1.68-4.03-0.17-5.64L109.3,7.99H89.82L89.82,7.99z M7.99,32.76c0,2.21-1.79,4-4,4 c-2.21,0-4-1.79-4-4V4.01c0-2.21,1.79-4,4-4h29.21c2.21,0,4,1.79,4,4c0,2.21-1.79,4-4,4H14.03l34.36,32.48 c1.6,1.51,1.68,4.03,0.17,5.64c-1.51,1.6-4.03,1.68-5.64,0.17L7.99,13.28V32.76L7.99,32.76z M32.94,114.77c2.21,0,4,1.79,4,4 c0,2.21-1.79,4-4,4H4.19c-2.21,0-4-1.79-4-4V89.55c0-2.21,1.79-4,4-4c2.21,0,4,1.79,4,4v19.18l32.48-34.36 c1.51-1.6,4.03-1.68,5.64-0.17c1.6,1.51,1.68,4.03,0.17,5.64l-33.02,34.93H32.94L32.94,114.77z"
       id="path72" /></g></svg>