<?xml version="1.0" encoding="UTF-8" standalone="no"?>
<!-- Created with Inkscape (http://www.inkscape.org/) -->

<svg
   width="10.975048mm"
   height="11.37709mm"
   viewBox="0 0 10.975048 11.37709"
   version="1.1"
   id="svg1104"
   inkscape:version="1.2.2 (732a01da63, 2022-12-09, custom)"
   sodipodi:docname="icon_plan_action.svg"
   xmlns:inkscape="http://www.inkscape.org/namespaces/inkscape"
   xmlns:sodipodi="http://sodipodi.sourceforge.net/DTD/sodipodi-0.dtd"
   xmlns="http://www.w3.org/2000/svg"
   xmlns:svg="http://www.w3.org/2000/svg">
  <sodipodi:namedview
     id="namedview1106"
     borderopacity="0.25"
     inkscape:showpageshadow="2"
     inkscape:pageopacity="0.0"
     inkscape:pagecheckerboard="0"
     inkscape:deskcolor="#d1d1d1"
     inkscape:document-units="mm"
     showgrid="false"
     inkscape:zoom="7.9421345"
     inkscape:cx="36.388203"
     inkscape:cy="20.586405"
     inkscape:window-width="1920"
     inkscape:window-height="1016"
     inkscape:window-x="0"
     inkscape:window-y="0"
     inkscape:window-maximized="1"
     inkscape:current-layer="layer1" />
  <defs
     id="defs1101" />
  <g
     inkscape:label="Layer 1"
     inkscape:groupmode="layer"
     id="layer1"
     transform="translate(-8.0810036,-158.6414)">
    <path
       inkscape:connector-curvature="0"
      style="fill-opacity:1;stroke:none;stroke-width:2.36378;stroke-linecap:round;stroke-linejoin:bevel;stroke-miterlimit:4;stroke-dasharray:none;stroke-dashoffset:0;stroke-opacity:1;paint-order:stroke fill markers"
       d="m 17.274772,158.6414 -3.336767,5.77949 -0.13798,2.03709 1.695503,-1.13792 3.336766,-5.77949 z m -7.8708518,0.40153 c -0.7328958,0 -1.3229166,0.59002 -1.3229166,1.32291 v 8.32973 c 0,0.73289 0.5900208,1.32292 1.3229166,1.32292 h 8.3292158 c 0.732896,0 1.322916,-0.59003 1.322916,-1.32292 v -8.46098 l -0.927602,1.54512 v 6.51743 c 0,0.43974 -0.354013,0.79375 -0.79375,0.79375 H 9.8018271 c -0.4397375,0 -0.79375,-0.35401 -0.79375,-0.79375 v -7.53287 c 0,-0.43974 0.3540125,-0.79375 0.79375,-0.79375 h 0.6475149 5.382604 c 0.566314,-0.92692 0.566076,-0.92682 0.56896,-0.92759 h -5.951564 z m 8.0330938,0.009 a 0.23255447,0.23255447 0 0 1 0.212408,0.3483 l -2.814294,4.87515 a 0.23268051,0.23268051 0 1 1 -0.403093,-0.23254 l 2.814823,-4.87515 a 0.23255447,0.23255447 0 0 1 0.190156,-0.11576 z m 0.721916,0.39688 a 0.23252324,0.23252324 0 0 1 0.193807,0.3576 l -2.814294,4.87515 a 0.23262411,0.23262411 0 1 1 -0.41394,-0.21239 0.23252324,0.23252324 0 0 1 0.01138,-0.0202 l 2.814796,-4.87464 a 0.23252324,0.23252324 0 0 1 0.208254,-0.12557 z m -7.807775,1.67173 a 0.48254827,0.48254827 0 1 0 0,0.9648 h 3.741896 a 0.48254827,0.48254827 0 1 0 0,-0.9648 z m 0,2.00453 a 0.48254819,0.48254819 0 1 0 0,0.96479 h 2.797757 a 0.48254819,0.48254819 0 1 0 0,-0.96479 z m 0,2.00452 a 0.48266,0.48266 0 1 0 0,0.96532 h 2.276343 a 0.48266,0.48266 0 0 0 0,-0.96532 z m 0,2.00505 a 0.48254824,0.48254824 0 1 0 0,0.9648 h 6.766004 a 0.48254824,0.48254824 0 1 0 0,-0.9648 z"
       id="rect1313-6"
       inkscape:export-filename="/home/sbe/projects/terristory/front/src/img/icon_plan_action-green-two.png"
       inkscape:export-xdpi="90"
       inkscape:export-ydpi="90" />
  </g>
</svg>
